N,err_bin,err_gray
0,95.62500,115.67857
1,94.87500,113.67857
2,94.12500,113.17857
3,93.37500,111.17857
4,92.62500,111.96429
5,91.87500,109.96429
6,91.12500,109.46429
7,90.37500,107.46429
8,89.62500,108.53571
9,88.87500,106.53571
10,88.12500,106.03571
11,87.37500,104.03571
12,86.62500,104.82143
13,85.87500,102.82143
14,85.12500,102.32143
15,84.37500,100.32143
16,83.62500,99.67857
17,82.87500,97.67857
18,82.12500,97.17857
19,81.37500,95.17857
20,80.62500,95.96429
21,79.87500,93.96429
22,79.12500,93.46429
23,78.37500,91.46429
24,77.62500,92.53571
25,76.87500,90.53571
26,76.12500,90.03571
27,75.37500,88.03571
28,74.62500,88.82143
29,73.87500,86.82143
30,73.12500,86.32143
31,72.37500,84.32143
32,71.62500,80.25000
33,70.87500,78.25000
34,70.12500,77.75000
35,69.37500,75.75000
36,68.62500,76.53571
37,67.87500,74.53571
38,67.12500,74.03571
39,66.37500,72.03571
40,65.62500,73.10714
41,64.87500,71.10714
42,64.12500,70.60714
43,63.37500,68.60714
44,62.62500,69.39286
45,61.87500,67.39286
46,61.12500,66.89286
47,60.37500,64.89286
48,59.62500,64.25000
49,58.87500,62.25000
50,58.12500,61.75000
51,57.37500,59.75000
52,56.62500,60.53571
53,55.87500,58.53571
54,55.12500,58.03571
55,54.37500,56.03571
56,53.62500,57.10714
57,52.87500,55.10714
58,52.12500,54.60714
59,51.37500,52.60714
60,50.62500,53.39286
61,49.87500,51.39286
62,49.12500,50.89286
63,48.37500,48.89286
64,47.62500,47.10714
65,46.87500,45.10714
66,46.12500,44.60714
67,45.37500,42.60714
68,44.62500,43.39286
69,43.87500,41.39286
70,43.12500,40.89286
71,42.37500,38.89286
72,41.62500,39.96429
73,40.87500,37.96429
74,40.12500,37.46429
75,39.37500,35.46429
76,38.62500,36.25000
77,37.87500,34.25000
78,37.12500,33.75000
79,36.37500,31.75000
80,35.62500,31.10714
81,34.87500,29.10714
82,34.12500,28.60714
83,33.37500,26.60714
84,32.62500,27.39286
85,31.87500,25.39286
86,31.12500,24.89286
87,30.37500,22.89286
88,29.62500,23.96429
89,28.87500,21.96429
90,28.12500,21.46429
91,27.37500,19.46429
92,26.62500,20.25000
93,25.87500,18.25000
94,25.12500,17.75000
95,24.37500,15.75000
96,23.62500,11.67857
97,22.87500,9.67857
98,22.12500,9.17857
99,21.37500,7.17857
100,20.62500,7.96429
101,19.87500,5.96429
102,19.12500,5.46429
103,18.37500,3.46429
104,17.62500,4.53571
105,16.87500,2.53571
106,16.12500,2.03571
107,15.37500,0.03571
108,14.62500,0.82143
109,13.87500,-1.17857
110,13.12500,-1.67857
111,12.37500,-3.67857
112,11.62500,-4.32143
113,10.87500,-6.32143
114,10.12500,-6.82143
115,9.37500,-8.82143
116,8.62500,-8.03571
117,7.87500,-10.03571
118,7.12500,-10.53571
119,6.37500,-12.53571
120,5.62500,-11.46429
121,4.87500,-13.46429
122,4.12500,-13.96429
123,3.37500,-15.96429
124,2.62500,-15.17857
125,1.87500,-17.17857
126,1.12500,-17.67857
127,0.37500,-19.67857
128,-0.37500,19.67857
129,-1.12500,17.67857
130,-1.87500,17.17857
131,-2.62500,15.17857
132,-3.37500,15.96429
133,-4.12500,13.96429
134,-4.87500,13.46429
135,-5.62500,11.46429
136,-6.37500,12.53571
137,-7.12500,10.53571
138,-7.87500,10.03571
139,-8.62500,8.03571
140,-9.37500,8.82143
141,-10.12500,6.82143
142,-10.87500,6.32143
143,-11.62500,4.32143
144,-12.37500,3.67857
145,-13.12500,1.67857
146,-13.87500,1.17857
147,-14.62500,-0.82143
148,-15.37500,-0.03571
149,-16.12500,-2.03571
150,-16.87500,-2.53571
151,-17.62500,-4.53571
152,-18.37500,-3.46429
153,-19.12500,-5.46429
154,-19.87500,-5.96429
155,-20.62500,-7.96429
156,-21.37500,-7.17857
157,-22.12500,-9.17857
158,-22.87500,-9.67857
159,-23.62500,-11.67857
160,-24.37500,-15.75000
161,-25.12500,-17.75000
162,-25.87500,-18.25000
163,-26.62500,-20.25000
164,-27.37500,-19.46429
165,-28.12500,-21.46429
166,-28.87500,-21.96429
167,-29.62500,-23.96429
168,-30.37500,-22.89286
169,-31.12500,-24.89286
170,-31.87500,-25.39286
171,-32.62500,-27.39286
172,-33.37500,-26.60714
173,-34.12500,-28.60714
174,-34.87500,-29.10714
175,-35.62500,-31.10714
176,-36.37500,-31.75000
177,-37.12500,-33.75000
178,-37.87500,-34.25000
179,-38.62500,-36.25000
180,-39.37500,-35.46429
181,-40.12500,-37.46429
182,-40.87500,-37.96429
183,-41.62500,-39.96429
184,-42.37500,-38.89286
185,-43.12500,-40.89286
186,-43.87500,-41.39286
187,-44.62500,-43.39286
188,-45.37500,-42.60714
189,-46.12500,-44.60714
190,-46.87500,-45.10714
191,-47.62500,-47.10714
192,-48.37500,-48.89286
193,-49.12500,-50.89286
194,-49.87500,-51.39286
195,-50.62500,-53.39286
196,-51.37500,-52.60714
197,-52.12500,-54.60714
198,-52.87500,-55.10714
199,-53.62500,-57.10714
200,-54.37500,-56.03571
201,-55.12500,-58.03571
202,-55.87500,-58.53571
203,-56.62500,-60.53571
204,-57.37500,-59.75000
205,-58.12500,-61.75000
206,-58.87500,-62.25000
207,-59.62500,-64.25000
208,-60.37500,-64.89286
209,-61.12500,-66.89286
210,-61.87500,-67.39286
211,-62.62500,-69.39286
212,-63.37500,-68.60714
213,-64.12500,-70.60714
214,-64.87500,-71.10714
215,-65.62500,-73.10714
216,-66.37500,-72.03571
217,-67.12500,-74.03571
218,-67.87500,-74.53571
219,-68.62500,-76.53571
220,-69.37500,-75.75000
221,-70.12500,-77.75000
222,-70.87500,-78.25000
223,-71.62500,-80.25000
224,-72.37500,-84.32143
225,-73.12500,-86.32143
226,-73.87500,-86.82143
227,-74.62500,-88.82143
228,-75.37500,-88.03571
229,-76.12500,-90.03571
230,-76.87500,-90.53571
231,-77.62500,-92.53571
232,-78.37500,-91.46429
233,-79.12500,-93.46429
234,-79.87500,-93.96429
235,-80.62500,-95.96429
236,-81.37500,-95.17857
237,-82.12500,-97.17857
238,-82.87500,-97.67857
239,-83.62500,-99.67857
240,-84.37500,-100.32143
241,-85.12500,-102.32143
242,-85.87500,-102.82143
243,-86.62500,-104.82143
244,-87.37500,-104.03571
245,-88.12500,-106.03571
246,-88.87500,-106.53571
247,-89.62500,-108.53571
248,-90.37500,-107.46429
249,-91.12500,-109.46429
250,-91.87500,-109.96429
251,-92.62500,-111.96429
252,-93.37500,-111.17857
253,-94.12500,-113.17857
254,-94.87500,-113.67857
255,-95.62500,-115.67857
